Directory Replication
Date Time: 2022-02-28 09:28:25 AM
Source Directory: C:\Backups\npm\node_modules\npm\lib
Target Directory: C:\Backups\Test Replicate\lib
========================================================
========================================================

Total Number of Files to Copy 76:

Copying C:\Backups\npm\node_modules\npm\lib\arborist-cmd.js.
Copied C:\Backups\Test Replicate\lib\arborist-cmd.js successfully.
Copying C:\Backups\npm\node_modules\npm\lib\base-command.js.
Copied C:\Backups\Test Replicate\lib\base-command.js successfully.
Copying C:\Backups\npm\node_modules\npm\lib\cli.js.
Copied C:\Backups\Test Replicate\lib\cli.js successfully.
Copying C:\Backups\npm\node_modules\npm\lib\lifecycle-cmd.js.
Copied C:\Backups\Test Replicate\lib\lifecycle-cmd.js successfully.
Copying C:\Backups\npm\node_modules\npm\lib\npm.js.
Copied C:\Backups\Test Replicate\lib\npm.js successfully.
Creating Directory C:\Backups\npm\node_modules\npm\lib\commands to C:\Backups\Test Replicate\lib
Created Directory C:\Backups\Test Replicate\lib\commands successfully
Copying C:\Backups\npm\node_modules\npm\lib\commands\access.js.
Copied C:\Backups\Test Replicate\lib\commands\access.js successfully.
Copying C:\Backups\npm\node_modules\npm\lib\commands\adduser.js.
Copied C:\Backups\Test Replicate\lib\commands\adduser.js successfully.
Copying C:\Backups\npm\node_modules\npm\lib\commands\audit.js.
Copied C:\Backups\Test Replicate\lib\commands\audit.js successfully.
Copying C:\Backups\npm\node_modules\npm\lib\commands\bin.js.
Copied C:\Backups\Test Replicate\lib\commands\bin.js successfully.
Copying C:\Backups\npm\node_modules\npm\lib\commands\birthday.js.
Copied C:\Backups\Test Replicate\lib\commands\birthday.js successfully.
Copying C:\Backups\npm\node_modules\npm\lib\commands\bugs.js.
Copied C:\Backups\Test Replicate\lib\commands\bugs.js successfully.
Copying C:\Backups\npm\node_modules\npm\lib\commands\cache.js.
Copied C:\Backups\Test Replicate\lib\commands\cache.js successfully.
Copying C:\Backups\npm\node_modules\npm\lib\commands\ci.js.
Copied C:\Backups\Test Replicate\lib\commands\ci.js successfully.
Copying C:\Backups\npm\node_modules\npm\lib\commands\completion.js.
Copied C:\Backups\Test Replicate\lib\commands\completion.js successfully.
Copying C:\Backups\npm\node_modules\npm\lib\commands\config.js.
Copied C:\Backups\Test Replicate\lib\commands\config.js successfully.
Copying C:\Backups\npm\node_modules\npm\lib\commands\dedupe.js.
Copied C:\Backups\Test Replicate\lib\commands\dedupe.js successfully.
Copying C:\Backups\npm\node_modules\npm\lib\commands\deprecate.js.
Copied C:\Backups\Test Replicate\lib\commands\deprecate.js successfully.
Copying C:\Backups\npm\node_modules\npm\lib\commands\diff.js.
Copied C:\Backups\Test Replicate\lib\commands\diff.js successfully.
Copying C:\Backups\npm\node_modules\npm\lib\commands\dist-tag.js.
Copied C:\Backups\Test Replicate\lib\commands\dist-tag.js successfully.
Copying C:\Backups\npm\node_modules\npm\lib\commands\docs.js.
Copied C:\Backups\Test Replicate\lib\commands\docs.js successfully.
Copying C:\Backups\npm\node_modules\npm\lib\commands\doctor.js.
Copied C:\Backups\Test Replicate\lib\commands\doctor.js successfully.
Copying C:\Backups\npm\node_modules\npm\lib\commands\edit.js.
Copied C:\Backups\Test Replicate\lib\commands\edit.js successfully.
Copying C:\Backups\npm\node_modules\npm\lib\commands\exec.js.
Copied C:\Backups\Test Replicate\lib\commands\exec.js successfully.
Copying C:\Backups\npm\node_modules\npm\lib\commands\explain.js.
Copied C:\Backups\Test Replicate\lib\commands\explain.js successfully.
Copying C:\Backups\npm\node_modules\npm\lib\commands\explore.js.
Copied C:\Backups\Test Replicate\lib\commands\explore.js successfully.
Copying C:\Backups\npm\node_modules\npm\lib\commands\find-dupes.js.
Copied C:\Backups\Test Replicate\lib\commands\find-dupes.js successfully.
Copying C:\Backups\npm\node_modules\npm\lib\commands\fund.js.
Copied C:\Backups\Test Replicate\lib\commands\fund.js successfully.
Copying C:\Backups\npm\node_modules\npm\lib\commands\get.js.
Copied C:\Backups\Test Replicate\lib\commands\get.js successfully.
Copying C:\Backups\npm\node_modules\npm\lib\commands\help-search.js.
Copied C:\Backups\Test Replicate\lib\commands\help-search.js successfully.
Copying C:\Backups\npm\node_modules\npm\lib\commands\help.js.
Copied C:\Backups\Test Replicate\lib\commands\help.js successfully.
Copying C:\Backups\npm\node_modules\npm\lib\commands\hook.js.
Copied C:\Backups\Test Replicate\lib\commands\hook.js successfully.
Copying C:\Backups\npm\node_modules\npm\lib\commands\init.js.
Copied C:\Backups\Test Replicate\lib\commands\init.js successfully.
Copying C:\Backups\npm\node_modules\npm\lib\commands\install-ci-test.js.
Copied C:\Backups\Test Replicate\lib\commands\install-ci-test.js successfully.
Copying C:\Backups\npm\node_modules\npm\lib\commands\install-test.js.
Copied C:\Backups\Test Replicate\lib\commands\install-test.js successfully.
Copying C:\Backups\npm\node_modules\npm\lib\commands\install.js.
Copied C:\Backups\Test Replicate\lib\commands\install.js successfully.
Copying C:\Backups\npm\node_modules\npm\lib\commands\link.js.
Copied C:\Backups\Test Replicate\lib\commands\link.js successfully.
Copying C:\Backups\npm\node_modules\npm\lib\commands\ll.js.
Copied C:\Backups\Test Replicate\lib\commands\ll.js successfully.
Copying C:\Backups\npm\node_modules\npm\lib\commands\logout.js.
Copied C:\Backups\Test Replicate\lib\commands\logout.js successfully.
Copying C:\Backups\npm\node_modules\npm\lib\commands\ls.js.
Copied C:\Backups\Test Replicate\lib\commands\ls.js successfully.
Copying C:\Backups\npm\node_modules\npm\lib\commands\org.js.
Copied C:\Backups\Test Replicate\lib\commands\org.js successfully.
Copying C:\Backups\npm\node_modules\npm\lib\commands\outdated.js.
Copied C:\Backups\Test Replicate\lib\commands\outdated.js successfully.
Copying C:\Backups\npm\node_modules\npm\lib\commands\owner.js.
Copied C:\Backups\Test Replicate\lib\commands\owner.js successfully.
Copying C:\Backups\npm\node_modules\npm\lib\commands\pack.js.
Copied C:\Backups\Test Replicate\lib\commands\pack.js successfully.
Copying C:\Backups\npm\node_modules\npm\lib\commands\ping.js.
Copied C:\Backups\Test Replicate\lib\commands\ping.js successfully.
Copying C:\Backups\npm\node_modules\npm\lib\commands\pkg.js.
Copied C:\Backups\Test Replicate\lib\commands\pkg.js successfully.
Copying C:\Backups\npm\node_modules\npm\lib\commands\prefix.js.
Copied C:\Backups\Test Replicate\lib\commands\prefix.js successfully.
Copying C:\Backups\npm\node_modules\npm\lib\commands\profile.js.
Copied C:\Backups\Test Replicate\lib\commands\profile.js successfully.
Copying C:\Backups\npm\node_modules\npm\lib\commands\prune.js.
Copied C:\Backups\Test Replicate\lib\commands\prune.js successfully.
Copying C:\Backups\npm\node_modules\npm\lib\commands\publish.js.
Copied C:\Backups\Test Replicate\lib\commands\publish.js successfully.
Copying C:\Backups\npm\node_modules\npm\lib\commands\rebuild.js.
Copied C:\Backups\Test Replicate\lib\commands\rebuild.js successfully.
Copying C:\Backups\npm\node_modules\npm\lib\commands\repo.js.
Copied C:\Backups\Test Replicate\lib\commands\repo.js successfully.
Copying C:\Backups\npm\node_modules\npm\lib\commands\restart.js.
Copied C:\Backups\Test Replicate\lib\commands\restart.js successfully.
Copying C:\Backups\npm\node_modules\npm\lib\commands\root.js.
Copied C:\Backups\Test Replicate\lib\commands\root.js successfully.
Copying C:\Backups\npm\node_modules\npm\lib\commands\run-script.js.
Copied C:\Backups\Test Replicate\lib\commands\run-script.js successfully.
Copying C:\Backups\npm\node_modules\npm\lib\commands\search.js.
Copied C:\Backups\Test Replicate\lib\commands\search.js successfully.
Copying C:\Backups\npm\node_modules\npm\lib\commands\set-script.js.
Copied C:\Backups\Test Replicate\lib\commands\set-script.js successfully.
Copying C:\Backups\npm\node_modules\npm\lib\commands\set.js.
Copied C:\Backups\Test Replicate\lib\commands\set.js successfully.
Copying C:\Backups\npm\node_modules\npm\lib\commands\shrinkwrap.js.
Copied C:\Backups\Test Replicate\lib\commands\shrinkwrap.js successfully.
Copying C:\Backups\npm\node_modules\npm\lib\commands\star.js.
Copied C:\Backups\Test Replicate\lib\commands\star.js successfully.
Copying C:\Backups\npm\node_modules\npm\lib\commands\stars.js.
Copied C:\Backups\Test Replicate\lib\commands\stars.js successfully.
Copying C:\Backups\npm\node_modules\npm\lib\commands\start.js.
Copied C:\Backups\Test Replicate\lib\commands\start.js successfully.
Copying C:\Backups\npm\node_modules\npm\lib\commands\stop.js.
Copied C:\Backups\Test Replicate\lib\commands\stop.js successfully.
Copying C:\Backups\npm\node_modules\npm\lib\commands\team.js.
Copied C:\Backups\Test Replicate\lib\commands\team.js successfully.
Copying C:\Backups\npm\node_modules\npm\lib\commands\test.js.
Copied C:\Backups\Test Replicate\lib\commands\test.js successfully.
Copying C:\Backups\npm\node_modules\npm\lib\commands\token.js.
Copied C:\Backups\Test Replicate\lib\commands\token.js successfully.
Copying C:\Backups\npm\node_modules\npm\lib\commands\uninstall.js.
Copied C:\Backups\Test Replicate\lib\commands\uninstall.js successfully.
Copying C:\Backups\npm\node_modules\npm\lib\commands\unpublish.js.
Copied C:\Backups\Test Replicate\lib\commands\unpublish.js successfully.
Copying C:\Backups\npm\node_modules\npm\lib\commands\unstar.js.
Copied C:\Backups\Test Replicate\lib\commands\unstar.js successfully.
Copying C:\Backups\npm\node_modules\npm\lib\commands\update.js.
Copied C:\Backups\Test Replicate\lib\commands\update.js successfully.
Copying C:\Backups\npm\node_modules\npm\lib\commands\version.js.
Copied C:\Backups\Test Replicate\lib\commands\version.js successfully.
Copying C:\Backups\npm\node_modules\npm\lib\commands\view.js.
Copied C:\Backups\Test Replicate\lib\commands\view.js successfully.
Copying C:\Backups\npm\node_modules\npm\lib\commands\whoami.js.
Copied C:\Backups\Test Replicate\lib\commands\whoami.js successfully.
Creating Directory C:\Backups\npm\node_modules\npm\lib\exec to C:\Backups\Test Replicate\lib
Created Directory C:\Backups\Test Replicate\lib\exec successfully
Copying C:\Backups\npm\node_modules\npm\lib\exec\get-workspace-location-msg.js.
Copied C:\Backups\Test Replicate\lib\exec\get-workspace-location-msg.js successfully.
Creating Directory C:\Backups\npm\node_modules\npm\lib\search to C:\Backups\Test Replicate\lib
Created Directory C:\Backups\Test Replicate\lib\search successfully
Copying C:\Backups\npm\node_modules\npm\lib\search\format-package-stream.js.
Copied C:\Backups\Test Replicate\lib\search\format-package-stream.js successfully.
Copying C:\Backups\npm\node_modules\npm\lib\search\package-filter.js.
Copied C:\Backups\Test Replicate\lib\search\package-filter.js successfully.
Creating Directory C:\Backups\npm\node_modules\npm\lib\workspaces to C:\Backups\Test Replicate\lib
Created Directory C:\Backups\Test Replicate\lib\workspaces successfully
Copying C:\Backups\npm\node_modules\npm\lib\workspaces\get-workspaces.js.
Copied C:\Backups\Test Replicate\lib\workspaces\get-workspaces.js successfully.
Replication completed.
